<svg width="26" height="26" viewBox="0 0 26 26" fill="none" xmlns="http://www.w3.org/2000/svg">
<path d="M13 15.1666C13.2143 15.1666 13.4237 15.1031 13.6019 14.9841C13.78 14.865 13.9189 14.6958 14.0009 14.4979C14.0829 14.2999 14.1043 14.0821 14.0625 13.8719C14.0207 13.6618 13.9176 13.4688 13.7661 13.3173C13.6145 13.1658 13.4215 13.0626 13.2114 13.0208C13.0012 12.979 12.7834 13.0004 12.5854 13.0824C12.3875 13.1644 12.2183 13.3033 12.0993 13.4814C11.9802 13.6596 11.9167 13.869 11.9167 14.0833C11.9167 14.3706 12.0308 14.6462 12.234 14.8493C12.4372 15.0525 12.7127 15.1666 13 15.1666ZM18.4167 15.1666C18.6309 15.1666 18.8404 15.1031 19.0186 14.9841C19.1967 14.865 19.3356 14.6958 19.4176 14.4979C19.4995 14.2999 19.521 14.0821 19.4792 13.8719C19.4374 13.6618 19.3342 13.4688 19.1827 13.3173C19.0312 13.1658 18.8382 13.0626 18.628 13.0208C18.4179 12.979 18.2001 13.0004 18.0021 13.0824C17.8042 13.1644 17.635 13.3033 17.5159 13.4814C17.3969 13.6596 17.3334 13.869 17.3334 14.0833C17.3334 14.3706 17.4475 14.6462 17.6507 14.8493C17.8538 15.0525 18.1294 15.1666 18.4167 15.1666ZM13 19.5C13.2143 19.5 13.4237 19.4364 13.6019 19.3174C13.78 19.1983 13.9189 19.0292 14.0009 18.8312C14.0829 18.6332 14.1043 18.4154 14.0625 18.2053C14.0207 17.9951 13.9176 17.8021 13.7661 17.6506C13.6145 17.4991 13.4215 17.3959 13.2114 17.3541C13.0012 17.3123 12.7834 17.3338 12.5854 17.4158C12.3875 17.4978 12.2183 17.6366 12.0993 17.8148C11.9802 17.9929 11.9167 18.2024 11.9167 18.4166C11.9167 18.7039 12.0308 18.9795 12.234 19.1827C12.4372 19.3858 12.7127 19.5 13 19.5ZM18.4167 19.5C18.6309 19.5 18.8404 19.4364 19.0186 19.3174C19.1967 19.1983 19.3356 19.0292 19.4176 18.8312C19.4995 18.6332 19.521 18.4154 19.4792 18.2053C19.4374 17.9951 19.3342 17.8021 19.1827 17.6506C19.0312 17.4991 18.8382 17.3959 18.628 17.3541C18.4179 17.3123 18.2001 17.3338 18.0021 17.4158C17.8042 17.4978 17.635 17.6366 17.5159 17.8148C17.3969 17.9929 17.3334 18.2024 17.3334 18.4166C17.3334 18.7039 17.4475 18.9795 17.6507 19.1827C17.8538 19.3858 18.1294 19.5 18.4167 19.5ZM7.58335 15.1666C7.79762 15.1666 8.00707 15.1031 8.18522 14.9841C8.36337 14.865 8.50223 14.6958 8.58422 14.4979C8.66622 14.2999 8.68767 14.0821 8.64587 13.8719C8.60407 13.6618 8.50089 13.4688 8.34939 13.3173C8.19788 13.1658 8.00485 13.0626 7.7947 13.0208C7.58456 12.979 7.36673 13.0004 7.16878 13.0824C6.97083 13.1644 6.80163 13.3033 6.68259 13.4814C6.56356 13.6596 6.50002 13.869 6.50002 14.0833C6.50002 14.3706 6.61416 14.6462 6.81732 14.8493C7.02049 15.0525 7.29604 15.1666 7.58335 15.1666ZM20.5834 4.33329H19.5V3.24996C19.5 2.96264 19.3859 2.68709 19.1827 2.48393C18.9796 2.28076 18.704 2.16663 18.4167 2.16663C18.1294 2.16663 17.8538 2.28076 17.6507 2.48393C17.4475 2.68709 17.3334 2.96264 17.3334 3.24996V4.33329H8.66669V3.24996C8.66669 2.96264 8.55255 2.68709 8.34939 2.48393C8.14622 2.28076 7.87067 2.16663 7.58335 2.16663C7.29604 2.16663 7.02049 2.28076 6.81732 2.48393C6.61416 2.68709 6.50002 2.96264 6.50002 3.24996V4.33329H5.41669C4.55473 4.33329 3.72808 4.6757 3.11859 5.2852C2.5091 5.89469 2.16669 6.72134 2.16669 7.58329V20.5833C2.16669 21.4452 2.5091 22.2719 3.11859 22.8814C3.72808 23.4909 4.55473 23.8333 5.41669 23.8333H20.5834C21.4453 23.8333 22.272 23.4909 22.8814 22.8814C23.4909 22.2719 23.8334 21.4452 23.8334 20.5833V7.58329C23.8334 6.72134 23.4909 5.89469 22.8814 5.2852C22.272 4.6757 21.4453 4.33329 20.5834 4.33329ZM21.6667 20.5833C21.6667 20.8706 21.5525 21.1462 21.3494 21.3493C21.1462 21.5525 20.8707 21.6666 20.5834 21.6666H5.41669C5.12937 21.6666 4.85382 21.5525 4.65065 21.3493C4.44749 21.1462 4.33335 20.8706 4.33335 20.5833V10.8333H21.6667V20.5833ZM21.6667 8.66663H4.33335V7.58329C4.33335 7.29597 4.44749 7.02042 4.65065 6.81726C4.85382 6.6141 5.12937 6.49996 5.41669 6.49996H20.5834C20.8707 6.49996 21.1462 6.6141 21.3494 6.81726C21.5525 7.02042 21.6667 7.29597 21.6667 7.58329V8.66663ZM7.58335 19.5C7.79762 19.5 8.00707 19.4364 8.18522 19.3174C8.36337 19.1983 8.50223 19.0292 8.58422 18.8312C8.66622 18.6332 8.68767 18.4154 8.64587 18.2053C8.60407 17.9951 8.50089 17.8021 8.34939 17.6506C8.19788 17.4991 8.00485 17.3959 7.7947 17.3541C7.58456 17.3123 7.36673 17.3338 7.16878 17.4158C6.97083 17.4978 6.80163 17.6366 6.68259 17.8148C6.56356 17.9929 6.50002 18.2024 6.50002 18.4166C6.50002 18.7039 6.61416 18.9795 6.81732 19.1827C7.02049 19.3858 7.29604 19.5 7.58335 19.5Z" fill="#4376D9"/>
</svg>
